switching_pc/a10_board/firmware/tb/linktests/out.vcd
$date
  Wed Aug  7 12:04:36 2019
$end
$version
  GHDL v0
$end
$timescale
  1 fs
$end
$var reg 1 ! clk $end
$var reg 1 " reset_n $end
$var reg 1 # enable $end
$var reg 32 $ rx_data[31:0] $end
$var reg 4 % rx_datak[3:0] $end
$var reg 32 & error_counts[31:0] $end
$var reg 32 ' bit_counts[31:0] $end
$scope module e_counter $end
$var reg 32 ( cnt[31:0] $end
$var reg 4 ) datak[3:0] $end
$var reg 1 * reset_n $end
$var reg 1 + enable $end
$var reg 1 , clk $end
$var reg 32 - local_counter[31:0] $end
$var reg 32 . tmp_counter[31:0] $end
$var reg 4 / local_datak[3:0] $end
$upscope $end
$scope module e_link_observer $end
$var reg 1 0 clk $end
$var reg 1 1 reset_n $end
$var reg 32 2 rx_data[31:0] $end
$var reg 4 3 rx_datak[3:0] $end
$var reg 32 4 error_counts[31:0] $end
$var reg 32 5 bit_counts[31:0] $end
$var reg 4 6 state_out[3:0] $end
$var reg 32 7 rx_counter[31:0] $end
$var reg 32 8 error_counter[31:0] $end
$var reg 32 9 bit_counter[31:0] $end
$upscope $end
$enddefinitions $end
#0
0!
0"
0#
b00000000000000000000000010111100 $
b0001 %
b00000000000000000000000000000000 &
b00000000000000000000000000000000 '
b00000000000000000000000010111100 (
b0001 )
0*
0+
0,
b00000000000000000000000010111100 -
b00000000000000000000000000000000 .
b0001 /
00
01
b00000000000000000000000010111100 2
b0001 3
b00000000000000000000000000000000 4
b00000000000000000000000000000000 5
bUUUU 6
b00000000000000000000000000000000 7
b00000000000000000000000000000000 8
b00000000000000000000000000000000 9
#5000000
1!
1,
10
#8000000
1"
1*
11
#10000000
0!
0,
00
#15000000
1!
1,
10
#20000000
0!
0,
00
#25000000
1!
1,
10
#28000000
1#
1+
#30000000
0!
0,
00
#35000000
1!
b00000000000000000000000000000000 $
b0000 %
b00000000000000000000000000000000 (
b0000 )
1,
b00000000000000000000000000000000 -
b00000000000000000000000000000001 .
b0000 /
10
b00000000000000000000000000000000 2
b0000 3
#40000000
0!
0,
00
#45000000
1!
b00000000000000000000000000000001 $
b00000000000000000000000000000001 '
b00000000000000000000000000000001 (
1,
b00000000000000000000000000000001 -
b00000000000000000000000000000010 .
10
b00000000000000000000000000000001 2
b00000000000000000000000000000001 5
b00000000000000000000000000000001 7
b00000000000000000000000000000001 9
#50000000
0!
0,
00
#55000000
1!
b00000000000000000000000000000010 $
b00000000000000000000000000000010 '
b00000000000000000000000000000010 (
1,
b00000000000000000000000000000010 -
b00000000000000000000000000000011 .
10
b00000000000000000000000000000010 2
b00000000000000000000000000000010 5
b00000000000000000000000000000010 7
b00000000000000000000000000000010 9
#60000000
0!
0,
00
#65000000
1!
b00000000000000000000000000000011 $
b00000000000000000000000000000011 '
b00000000000000000000000000000011 (
1,
b00000000000000000000000000000011 -
b00000000000000000000000000000100 .
10
b00000000000000000000000000000011 2
b00000000000000000000000000000011 5
b00000000000000000000000000000011 7
b00000000000000000000000000000011 9
#70000000
0!
0,
00
#75000000
1!
b00000000000000000000000000000100 $
b00000000000000000000000000000100 '
b00000000000000000000000000000100 (
1,
b00000000000000000000000000000100 -
b00000000000000000000000000000101 .
10
b00000000000000000000000000000100 2
b00000000000000000000000000000100 5
b00000000000000000000000000000100 7
b00000000000000000000000000000100 9
#80000000
0!
0,
00
#85000000
1!
b00000000000000000000000000000101 $
b00000000000000000000000000000101 '
b00000000000000000000000000000101 (
1,
b00000000000000000000000000000101 -
b00000000000000000000000000000110 .
10
b00000000000000000000000000000101 2
b00000000000000000000000000000101 5
b00000000000000000000000000000101 7
b00000000000000000000000000000101 9
#90000000
0!
0,
00
#95000000
1!
b00000000000000000000000000000110 $
b00000000000000000000000000000110 '
b00000000000000000000000000000110 (
1,
b00000000000000000000000000000110 -
b00000000000000000000000000000111 .
10
b00000000000000000000000000000110 2
b00000000000000000000000000000110 5
b00000000000000000000000000000110 7
b00000000000000000000000000000110 9
#100000000
0!
0,
00
#105000000
1!
b00000000000000000000000000000111 $
b00000000000000000000000000000111 '
b00000000000000000000000000000111 (
1,
b00000000000000000000000000000111 -
b00000000000000000000000000001000 .
10
b00000000000000000000000000000111 2
b00000000000000000000000000000111 5
b00000000000000000000000000000111 7
b00000000000000000000000000000111 9
#110000000
0!
0,
00
#115000000
1!
b00000000000000000000000000001000 $
b00000000000000000000000000001000 '
b00000000000000000000000000001000 (
1,
b00000000000000000000000000001000 -
b00000000000000000000000000001001 .
10
b00000000000000000000000000001000 2
b00000000000000000000000000001000 5
b00000000000000000000000000001000 7
b00000000000000000000000000001000 9
#120000000
0!
0,
00
#125000000
1!
b00000000000000000000000000001001 $
b00000000000000000000000000001001 '
b00000000000000000000000000001001 (
1,
b00000000000000000000000000001001 -
b00000000000000000000000000001010 .
10
b00000000000000000000000000001001 2
b00000000000000000000000000001001 5
b00000000000000000000000000001001 7
b00000000000000000000000000001001 9
#130000000
0!
0,
00
#135000000
1!
b00000000000000000000000000001010 $
b00000000000000000000000000001010 '
b00000000000000000000000000001010 (
1,
b00000000000000000000000000001010 -
b00000000000000000000000000001011 .
10
b00000000000000000000000000001010 2
b00000000000000000000000000001010 5
b00000000000000000000000000001010 7
b00000000000000000000000000001010 9
#140000000
0!
0,
00
#145000000
1!
b00000000000000000000000000001011 $
b00000000000000000000000000001011 '
b00000000000000000000000000001011 (
1,
b00000000000000000000000000001011 -
b00000000000000000000000000001100 .
10
b00000000000000000000000000001011 2
b00000000000000000000000000001011 5
b00000000000000000000000000001011 7
b00000000000000000000000000001011 9
#150000000
0!
0,
00
#155000000
1!
b00000000000000000000000000001100 $
b00000000000000000000000000001100 '
b00000000000000000000000000001100 (
1,
b00000000000000000000000000001100 -
b00000000000000000000000000001101 .
10
b00000000000000000000000000001100 2
b00000000000000000000000000001100 5
b00000000000000000000000000001100 7
b00000000000000000000000000001100 9
#160000000
0!
0,
00
#165000000
1!
b00000000000000000000000000001101 $
b00000000000000000000000000001101 '
b00000000000000000000000000001101 (
1,
b00000000000000000000000000001101 -
b00000000000000000000000000001110 .
10
b00000000000000000000000000001101 2
b00000000000000000000000000001101 5
b00000000000000000000000000001101 7
b00000000000000000000000000001101 9
#170000000
0!
0,
00
#175000000
1!
b00000000000000000000000000001110 $
b00000000000000000000000000001110 '
b00000000000000000000000000001110 (
1,
b00000000000000000000000000001110 -
b00000000000000000000000000001111 .
10
b00000000000000000000000000001110 2
b00000000000000000000000000001110 5
b00000000000000000000000000001110 7
b00000000000000000000000000001110 9
#180000000
0!
0,
00
#185000000
1!
b00000000000000000000000000001111 $
b00000000000000000000000000001111 '
b00000000000000000000000000001111 (
1,
b00000000000000000000000000001111 -
b00000000000000000000000000010000 .
10
b00000000000000000000000000001111 2
b00000000000000000000000000001111 5
b00000000000000000000000000001111 7
b00000000000000000000000000001111 9
#190000000
0!
0,
00
#195000000
1!
b00000000000000000000000000010000 $
b00000000000000000000000000010000 '
b00000000000000000000000000010000 (
1,
b00000000000000000000000000010000 -
b00000000000000000000000000010001 .
10
b00000000000000000000000000010000 2
b00000000000000000000000000010000 5
b00000000000000000000000000010000 7
b00000000000000000000000000010000 9
#200000000
0!
0,
00
#205000000
1!
b00000000000000000000000000010001 $
b00000000000000000000000000010001 '
b00000000000000000000000000010001 (
1,
b00000000000000000000000000010001 -
b00000000000000000000000000010010 .
10
b00000000000000000000000000010001 2
b00000000000000000000000000010001 5
b00000000000000000000000000010001 7
b00000000000000000000000000010001 9
#210000000
0!
0,
00
#215000000
1!
b00000000000000000000000000010010 $
b00000000000000000000000000010010 '
b00000000000000000000000000010010 (
1,
b00000000000000000000000000010010 -
b00000000000000000000000000010011 .
10
b00000000000000000000000000010010 2
b00000000000000000000000000010010 5
b00000000000000000000000000010010 7
b00000000000000000000000000010010 9
#220000000
0!
0,
00
#225000000
1!
b00000000000000000000000000010011 $
b00000000000000000000000000010011 '
b00000000000000000000000000010011 (
1,
b00000000000000000000000000010011 -
b00000000000000000000000000010100 .
10
b00000000000000000000000000010011 2
b00000000000000000000000000010011 5
b00000000000000000000000000010011 7
b00000000000000000000000000010011 9
#230000000
0!
0,
00
#235000000
1!
b00000000000000000000000000010100 $
b00000000000000000000000000010100 '
b00000000000000000000000000010100 (
1,
b00000000000000000000000000010100 -
b00000000000000000000000000010101 .
10
b00000000000000000000000000010100 2
b00000000000000000000000000010100 5
b00000000000000000000000000010100 7
b00000000000000000000000000010100 9
#240000000
0!
0,
00
#245000000
1!
b00000000000000000000000000010101 $
b00000000000000000000000000010101 '
b00000000000000000000000000010101 (
1,
b00000000000000000000000000010101 -
b00000000000000000000000000010110 .
10
b00000000000000000000000000010101 2
b00000000000000000000000000010101 5
b00000000000000000000000000010101 7
b00000000000000000000000000010101 9
#250000000
0!
0,
00
#255000000
1!
b00000000000000000000000000010110 $
b00000000000000000000000000010110 '
b00000000000000000000000000010110 (
1,
b00000000000000000000000000010110 -
b00000000000000000000000000010111 .
10
b00000000000000000000000000010110 2
b00000000000000000000000000010110 5
b00000000000000000000000000010110 7
b00000000000000000000000000010110 9
#260000000
0!
0,
00
#265000000
1!
b00000000000000000000000000010111 $
b00000000000000000000000000010111 '
b00000000000000000000000000010111 (
1,
b00000000000000000000000000010111 -
b00000000000000000000000000011000 .
10
b00000000000000000000000000010111 2
b00000000000000000000000000010111 5
b00000000000000000000000000010111 7
b00000000000000000000000000010111 9
#270000000
0!
0,
00
#275000000
1!
b00000000000000000000000000011000 $
b00000000000000000000000000011000 '
b00000000000000000000000000011000 (
1,
b00000000000000000000000000011000 -
b00000000000000000000000000011001 .
10
b00000000000000000000000000011000 2
b00000000000000000000000000011000 5
b00000000000000000000000000011000 7
b00000000000000000000000000011000 9
#280000000
0!
0,
00
#285000000
1!
b00000000000000000000000000011001 $
b00000000000000000000000000011001 '
b00000000000000000000000000011001 (
1,
b00000000000000000000000000011001 -
b00000000000000000000000000011010 .
10
b00000000000000000000000000011001 2
b00000000000000000000000000011001 5
b00000000000000000000000000011001 7
b00000000000000000000000000011001 9
#290000000
0!
0,
00
#295000000
1!
b00000000000000000000000000011010 $
b00000000000000000000000000011010 '
b00000000000000000000000000011010 (
1,
b00000000000000000000000000011010 -
b00000000000000000000000000011011 .
10
b00000000000000000000000000011010 2
b00000000000000000000000000011010 5
b00000000000000000000000000011010 7
b00000000000000000000000000011010 9
#300000000
0!
0,
00
#305000000
1!
b00000000000000000000000000011011 $
b00000000000000000000000000011011 '
b00000000000000000000000000011011 (
1,
b00000000000000000000000000011011 -
b00000000000000000000000000011100 .
10
b00000000000000000000000000011011 2
b00000000000000000000000000011011 5
b00000000000000000000000000011011 7
b00000000000000000000000000011011 9
#310000000
0!
0,
00
#315000000
1!
b00000000000000000000000000011100 $
b00000000000000000000000000011100 '
b00000000000000000000000000011100 (
1,
b00000000000000000000000000011100 -
b00000000000000000000000000011101 .
10
b00000000000000000000000000011100 2
b00000000000000000000000000011100 5
b00000000000000000000000000011100 7
b00000000000000000000000000011100 9
#320000000
0!
0,
00
#325000000
1!
b00000000000000000000000000011101 $
b00000000000000000000000000011101 '
b00000000000000000000000000011101 (
1,
b00000000000000000000000000011101 -
b00000000000000000000000000011110 .
10
b00000000000000000000000000011101 2
b00000000000000000000000000011101 5
b00000000000000000000000000011101 7
b00000000000000000000000000011101 9
#330000000
0!
0,
00
#335000000
1!
b00000000000000000000000000011110 $
b00000000000000000000000000011110 '
b00000000000000000000000000011110 (
1,
b00000000000000000000000000011110 -
b00000000000000000000000000011111 .
10
b00000000000000000000000000011110 2
b00000000000000000000000000011110 5
b00000000000000000000000000011110 7
b00000000000000000000000000011110 9
#340000000
0!
0,
00
#345000000
1!
b00000000000000000000000000011111 $
b00000000000000000000000000011111 '
b00000000000000000000000000011111 (
1,
b00000000000000000000000000011111 -
b00000000000000000000000000100000 .
10
b00000000000000000000000000011111 2
b00000000000000000000000000011111 5
b00000000000000000000000000011111 7
b00000000000000000000000000011111 9
#350000000
0!
0,
00
#355000000
1!
b00000000000000000000000000100000 $
b00000000000000000000000000100000 '
b00000000000000000000000000100000 (
1,
b00000000000000000000000000100000 -
b00000000000000000000000000100001 .
10
b00000000000000000000000000100000 2
b00000000000000000000000000100000 5
b00000000000000000000000000100000 7
b00000000000000000000000000100000 9
#360000000
0!
0,
00
#365000000
1!
b00000000000000000000000000100001 $
b00000000000000000000000000100001 '
b00000000000000000000000000100001 (
1,
b00000000000000000000000000100001 -
b00000000000000000000000000100010 .
10
b00000000000000000000000000100001 2
b00000000000000000000000000100001 5
b00000000000000000000000000100001 7
b00000000000000000000000000100001 9
#370000000
0!
0,
00
#375000000
1!
b00000000000000000000000000100010 $
b00000000000000000000000000100010 '
b00000000000000000000000000100010 (
1,
b00000000000000000000000000100010 -
b00000000000000000000000000100011 .
10
b00000000000000000000000000100010 2
b00000000000000000000000000100010 5
b00000000000000000000000000100010 7
b00000000000000000000000000100010 9
#380000000
0!
0,
00
#385000000
1!
b00000000000000000000000000100011 $
b00000000000000000000000000100011 '
b00000000000000000000000000100011 (
1,
b00000000000000000000000000100011 -
b00000000000000000000000000100100 .
10
b00000000000000000000000000100011 2
b00000000000000000000000000100011 5
b00000000000000000000000000100011 7
b00000000000000000000000000100011 9
#390000000
0!
0,
00
#395000000
1!
b00000000000000000000000000100100 $
b00000000000000000000000000100100 '
b00000000000000000000000000100100 (
1,
b00000000000000000000000000100100 -
b00000000000000000000000000100101 .
10
b00000000000000000000000000100100 2
b00000000000000000000000000100100 5
b00000000000000000000000000100100 7
b00000000000000000000000000100100 9
#400000000
0!
0,
00
#405000000
1!
b00000000000000000000000000100101 $
b00000000000000000000000000100101 '
b00000000000000000000000000100101 (
1,
b00000000000000000000000000100101 -
b00000000000000000000000000100110 .
10
b00000000000000000000000000100101 2
b00000000000000000000000000100101 5
b00000000000000000000000000100101 7
b00000000000000000000000000100101 9
#410000000
0!
0,
00
#415000000
1!
b00000000000000000000000000100110 $
b00000000000000000000000000100110 '
b00000000000000000000000000100110 (
1,
b00000000000000000000000000100110 -
b00000000000000000000000000100111 .
10
b00000000000000000000000000100110 2
b00000000000000000000000000100110 5
b00000000000000000000000000100110 7
b00000000000000000000000000100110 9
#420000000
0!
0,
00
#425000000
1!
b00000000000000000000000000100111 $
b00000000000000000000000000100111 '
b00000000000000000000000000100111 (
1,
b00000000000000000000000000100111 -
b00000000000000000000000000101000 .
10
b00000000000000000000000000100111 2
b00000000000000000000000000100111 5
b00000000000000000000000000100111 7
b00000000000000000000000000100111 9
#430000000
0!
0,
00
#435000000
1!
b00000000000000000000000000101000 $
b00000000000000000000000000101000 '
b00000000000000000000000000101000 (
1,
b00000000000000000000000000101000 -
b00000000000000000000000000101001 .
10
b00000000000000000000000000101000 2
b00000000000000000000000000101000 5
b00000000000000000000000000101000 7
b00000000000000000000000000101000 9
#440000000
0!
0,
00
#445000000
1!
b00000000000000000000000000101001 $
b00000000000000000000000000101001 '
b00000000000000000000000000101001 (
1,
b00000000000000000000000000101001 -
b00000000000000000000000000101010 .
10
b00000000000000000000000000101001 2
b00000000000000000000000000101001 5
b00000000000000000000000000101001 7
b00000000000000000000000000101001 9
#450000000
0!
0,
00
#455000000
1!
b00000000000000000000000000101010 $
b00000000000000000000000000101010 '
b00000000000000000000000000101010 (
1,
b00000000000000000000000000101010 -
b00000000000000000000000000101011 .
10
b00000000000000000000000000101010 2
b00000000000000000000000000101010 5
b00000000000000000000000000101010 7
b00000000000000000000000000101010 9
#460000000
0!
0,
00
#465000000
1!
b00000000000000000000000000101011 $
b00000000000000000000000000101011 '
b00000000000000000000000000101011 (
1,
b00000000000000000000000000101011 -
b00000000000000000000000000101100 .
10
b00000000000000000000000000101011 2
b00000000000000000000000000101011 5
b00000000000000000000000000101011 7
b00000000000000000000000000101011 9
#470000000
0!
0,
00
#475000000
1!
b00000000000000000000000000101100 $
b00000000000000000000000000101100 '
b00000000000000000000000000101100 (
1,
b00000000000000000000000000101100 -
b00000000000000000000000000101101 .
10
b00000000000000000000000000101100 2
b00000000000000000000000000101100 5
b00000000000000000000000000101100 7
b00000000000000000000000000101100 9
#480000000
0!
0,
00
#485000000
1!
b00000000000000000000000000101101 $
b00000000000000000000000000101101 '
b00000000000000000000000000101101 (
1,
b00000000000000000000000000101101 -
b00000000000000000000000000101110 .
10
b00000000000000000000000000101101 2
b00000000000000000000000000101101 5
b00000000000000000000000000101101 7
b00000000000000000000000000101101 9
#490000000
0!
0,
00
#495000000
1!
b00000000000000000000000000101110 $
b00000000000000000000000000101110 '
b00000000000000000000000000101110 (
1,
b00000000000000000000000000101110 -
b00000000000000000000000000101111 .
10
b00000000000000000000000000101110 2
b00000000000000000000000000101110 5
b00000000000000000000000000101110 7
b00000000000000000000000000101110 9
#500000000
0!
0,
00
#505000000
1!
b00000000000000000000000000101111 $
b00000000000000000000000000101111 '
b00000000000000000000000000101111 (
1,
b00000000000000000000000000101111 -
b00000000000000000000000000110000 .
10
b00000000000000000000000000101111 2
b00000000000000000000000000101111 5
b00000000000000000000000000101111 7
b00000000000000000000000000101111 9
#510000000
0!
0,
00
#515000000
1!
b00000000000000000000000000110000 $
b00000000000000000000000000110000 '
b00000000000000000000000000110000 (
1,
b00000000000000000000000000110000 -
b00000000000000000000000000110001 .
10
b00000000000000000000000000110000 2
b00000000000000000000000000110000 5
b00000000000000000000000000110000 7
b00000000000000000000000000110000 9
#520000000
0!
0,
00
#525000000
1!
b00000000000000000000000000110001 $
b00000000000000000000000000110001 '
b00000000000000000000000000110001 (
1,
b00000000000000000000000000110001 -
b00000000000000000000000000110010 .
10
b00000000000000000000000000110001 2
b00000000000000000000000000110001 5
b00000000000000000000000000110001 7
b00000000000000000000000000110001 9
#530000000
0!
0,
00
#535000000
1!
b00000000000000000000000000110010 $
b00000000000000000000000000110010 '
b00000000000000000000000000110010 (
1,
b00000000000000000000000000110010 -
b00000000000000000000000000110011 .
10
b00000000000000000000000000110010 2
b00000000000000000000000000110010 5
b00000000000000000000000000110010 7
b00000000000000000000000000110010 9
#540000000
0!
0,
00
#545000000
1!
b00000000000000000000000000110011 $
b00000000000000000000000000110011 '
b00000000000000000000000000110011 (
1,
b00000000000000000000000000110011 -
b00000000000000000000000000110100 .
10
b00000000000000000000000000110011 2
b00000000000000000000000000110011 5
b00000000000000000000000000110011 7
b00000000000000000000000000110011 9
#550000000
0!
0,
00
#555000000
1!
b00000000000000000000000000110100 $
b00000000000000000000000000110100 '
b00000000000000000000000000110100 (
1,
b00000000000000000000000000110100 -
b00000000000000000000000000110101 .
10
b00000000000000000000000000110100 2
b00000000000000000000000000110100 5
b00000000000000000000000000110100 7
b00000000000000000000000000110100 9
#560000000
0!
0,
00
#565000000
1!
b00000000000000000000000000110101 $
b00000000000000000000000000110101 '
b00000000000000000000000000110101 (
1,
b00000000000000000000000000110101 -
b00000000000000000000000000110110 .
10
b00000000000000000000000000110101 2
b00000000000000000000000000110101 5
b00000000000000000000000000110101 7
b00000000000000000000000000110101 9
#570000000
0!
0,
00
#575000000
1!
b00000000000000000000000000110110 $
b00000000000000000000000000110110 '
b00000000000000000000000000110110 (
1,
b00000000000000000000000000110110 -
b00000000000000000000000000110111 .
10
b00000000000000000000000000110110 2
b00000000000000000000000000110110 5
b00000000000000000000000000110110 7
b00000000000000000000000000110110 9
#580000000
0!
0,
00
#585000000
1!
b00000000000000000000000000110111 $
b00000000000000000000000000110111 '
b00000000000000000000000000110111 (
1,
b00000000000000000000000000110111 -
b00000000000000000000000000111000 .
10
b00000000000000000000000000110111 2
b00000000000000000000000000110111 5
b00000000000000000000000000110111 7
b00000000000000000000000000110111 9
#590000000
0!
0,
00
#595000000
1!
b00000000000000000000000000111000 $
b00000000000000000000000000111000 '
b00000000000000000000000000111000 (
1,
b00000000000000000000000000111000 -
b00000000000000000000000000111001 .
10
b00000000000000000000000000111000 2
b00000000000000000000000000111000 5
b00000000000000000000000000111000 7
b00000000000000000000000000111000 9
#600000000
0!
0,
00
#605000000
1!
b00000000000000000000000000111001 $
b00000000000000000000000000111001 '
b00000000000000000000000000111001 (
1,
b00000000000000000000000000111001 -
b00000000000000000000000000111010 .
10
b00000000000000000000000000111001 2
b00000000000000000000000000111001 5
b00000000000000000000000000111001 7
b00000000000000000000000000111001 9
#610000000
0!
0,
00
#615000000
1!
b00000000000000000000000000111010 $
b00000000000000000000000000111010 '
b00000000000000000000000000111010 (
1,
b00000000000000000000000000111010 -
b00000000000000000000000000111011 .
10
b00000000000000000000000000111010 2
b00000000000000000000000000111010 5
b00000000000000000000000000111010 7
b00000000000000000000000000111010 9
#620000000
0!
0,
00
#625000000
1!
b00000000000000000000000000111011 $
b00000000000000000000000000111011 '
b00000000000000000000000000111011 (
1,
b00000000000000000000000000111011 -
b00000000000000000000000000111100 .
10
b00000000000000000000000000111011 2
b00000000000000000000000000111011 5
b00000000000000000000000000111011 7
b00000000000000000000000000111011 9
#630000000
0!
0,
00
#635000000
1!
b00000000000000000000000000111100 $
b00000000000000000000000000111100 '
b00000000000000000000000000111100 (
1,
b00000000000000000000000000111100 -
b00000000000000000000000000111101 .
10
b00000000000000000000000000111100 2
b00000000000000000000000000111100 5
b00000000000000000000000000111100 7
b00000000000000000000000000111100 9
#640000000
0!
0,
00
#645000000
1!
b00000000000000000000000000111101 $
b00000000000000000000000000111101 '
b00000000000000000000000000111101 (
1,
b00000000000000000000000000111101 -
b00000000000000000000000000111110 .
10
b00000000000000000000000000111101 2
b00000000000000000000000000111101 5
b00000000000000000000000000111101 7
b00000000000000000000000000111101 9
#650000000
0!
0,
00
#655000000
1!
b00000000000000000000000000111110 $
b00000000000000000000000000111110 '
b00000000000000000000000000111110 (
1,
b00000000000000000000000000111110 -
b00000000000000000000000000111111 .
10
b00000000000000000000000000111110 2
b00000000000000000000000000111110 5
b00000000000000000000000000111110 7
b00000000000000000000000000111110 9
#660000000
0!
0,
00
#665000000
1!
b00000000000000000000000000111111 $
b00000000000000000000000000111111 '
b00000000000000000000000000111111 (
1,
b00000000000000000000000000111111 -
b00000000000000000000000001000000 .
10
b00000000000000000000000000111111 2
b00000000000000000000000000111111 5
b00000000000000000000000000111111 7
b00000000000000000000000000111111 9
#670000000
0!
0,
00
#675000000
1!
b00000000000000000000000001000000 $
b00000000000000000000000001000000 '
b00000000000000000000000001000000 (
1,
b00000000000000000000000001000000 -
b00000000000000000000000001000001 .
10
b00000000000000000000000001000000 2
b00000000000000000000000001000000 5
b00000000000000000000000001000000 7
b00000000000000000000000001000000 9
#680000000
0!
0,
00
#685000000
1!
b00000000000000000000000001000001 $
b00000000000000000000000001000001 '
b00000000000000000000000001000001 (
1,
b00000000000000000000000001000001 -
b00000000000000000000000001000010 .
10
b00000000000000000000000001000001 2
b00000000000000000000000001000001 5
b00000000000000000000000001000001 7
b00000000000000000000000001000001 9
#690000000
0!
0,
00
#695000000
1!
b00000000000000000000000001000010 $
b00000000000000000000000001000010 '
b00000000000000000000000001000010 (
1,
b00000000000000000000000001000010 -
b00000000000000000000000001000011 .
10
b00000000000000000000000001000010 2
b00000000000000000000000001000010 5
b00000000000000000000000001000010 7
b00000000000000000000000001000010 9
#700000000
0!
0,
00
#705000000
1!
b00000000000000000000000001000011 $
b00000000000000000000000001000011 '
b00000000000000000000000001000011 (
1,
b00000000000000000000000001000011 -
b00000000000000000000000001000100 .
10
b00000000000000000000000001000011 2
b00000000000000000000000001000011 5
b00000000000000000000000001000011 7
b00000000000000000000000001000011 9
#710000000
0!
0,
00
#715000000
1!
b00000000000000000000000001000100 $
b00000000000000000000000001000100 '
b00000000000000000000000001000100 (
1,
b00000000000000000000000001000100 -
b00000000000000000000000001000101 .
10
b00000000000000000000000001000100 2
b00000000000000000000000001000100 5
b00000000000000000000000001000100 7
b00000000000000000000000001000100 9
#720000000
0!
0,
00
#725000000
1!
b00000000000000000000000001000101 $
b00000000000000000000000001000101 '
b00000000000000000000000001000101 (
1,
b00000000000000000000000001000101 -
b00000000000000000000000001000110 .
10
b00000000000000000000000001000101 2
b00000000000000000000000001000101 5
b00000000000000000000000001000101 7
b00000000000000000000000001000101 9
#730000000
0!
0,
00
#735000000
1!
b00000000000000000000000001000110 $
b00000000000000000000000001000110 '
b00000000000000000000000001000110 (
1,
b00000000000000000000000001000110 -
b00000000000000000000000001000111 .
10
b00000000000000000000000001000110 2
b00000000000000000000000001000110 5
b00000000000000000000000001000110 7
b00000000000000000000000001000110 9
#740000000
0!
0,
00
#745000000
1!
b00000000000000000000000001000111 $
b00000000000000000000000001000111 '
b00000000000000000000000001000111 (
1,
b00000000000000000000000001000111 -
b00000000000000000000000001001000 .
10
b00000000000000000000000001000111 2
b00000000000000000000000001000111 5
b00000000000000000000000001000111 7
b00000000000000000000000001000111 9
#750000000
0!
0,
00
#755000000
1!
b00000000000000000000000001001000 $
b00000000000000000000000001001000 '
b00000000000000000000000001001000 (
1,
b00000000000000000000000001001000 -
b00000000000000000000000001001001 .
10
b00000000000000000000000001001000 2
b00000000000000000000000001001000 5
b00000000000000000000000001001000 7
b00000000000000000000000001001000 9
#760000000
0!
0,
00
#765000000
1!
b00000000000000000000000001001001 $
b00000000000000000000000001001001 '
b00000000000000000000000001001001 (
1,
b00000000000000000000000001001001 -
b00000000000000000000000001001010 .
10
b00000000000000000000000001001001 2
b00000000000000000000000001001001 5
b00000000000000000000000001001001 7
b00000000000000000000000001001001 9
#770000000
0!
0,
00
#775000000
1!
b00000000000000000000000001001010 $
b00000000000000000000000001001010 '
b00000000000000000000000001001010 (
1,
b00000000000000000000000001001010 -
b00000000000000000000000001001011 .
10
b00000000000000000000000001001010 2
b00000000000000000000000001001010 5
b00000000000000000000000001001010 7
b00000000000000000000000001001010 9
#780000000
0!
0,
00
#785000000
1!
b00000000000000000000000001001011 $
b00000000000000000000000001001011 '
b00000000000000000000000001001011 (
1,
b00000000000000000000000001001011 -
b00000000000000000000000001001100 .
10
b00000000000000000000000001001011 2
b00000000000000000000000001001011 5
b00000000000000000000000001001011 7
b00000000000000000000000001001011 9
#790000000
0!
0,
00
#795000000
1!
b00000000000000000000000001001100 $
b00000000000000000000000001001100 '
b00000000000000000000000001001100 (
1,
b00000000000000000000000001001100 -
b00000000000000000000000001001101 .
10
b00000000000000000000000001001100 2
b00000000000000000000000001001100 5
b00000000000000000000000001001100 7
b00000000000000000000000001001100 9
#800000000
0!
0,
00
#805000000
1!
b00000000000000000000000001001101 $
b00000000000000000000000001001101 '
b00000000000000000000000001001101 (
1,
b00000000000000000000000001001101 -
b00000000000000000000000001001110 .
10
b00000000000000000000000001001101 2
b00000000000000000000000001001101 5
b00000000000000000000000001001101 7
b00000000000000000000000001001101 9
#810000000
0!
0,
00
#815000000
1!
b00000000000000000000000001001110 $
b00000000000000000000000001001110 '
b00000000000000000000000001001110 (
1,
b00000000000000000000000001001110 -
b00000000000000000000000001001111 .
10
b00000000000000000000000001001110 2
b00000000000000000000000001001110 5
b00000000000000000000000001001110 7
b00000000000000000000000001001110 9
#820000000
0!
0,
00
#825000000
1!
b00000000000000000000000001001111 $
b00000000000000000000000001001111 '
b00000000000000000000000001001111 (
1,
b00000000000000000000000001001111 -
b00000000000000000000000001010000 .
10
b00000000000000000000000001001111 2
b00000000000000000000000001001111 5
b00000000000000000000000001001111 7
b00000000000000000000000001001111 9
#830000000
0!
0,
00
#835000000
1!
b00000000000000000000000001010000 $
b00000000000000000000000001010000 '
b00000000000000000000000001010000 (
1,
b00000000000000000000000001010000 -
b00000000000000000000000001010001 .
10
b00000000000000000000000001010000 2
b00000000000000000000000001010000 5
b00000000000000000000000001010000 7
b00000000000000000000000001010000 9
#840000000
0!
0,
00
#845000000
1!
b00000000000000000000000001010001 $
b00000000000000000000000001010001 '
b00000000000000000000000001010001 (
1,
b00000000000000000000000001010001 -
b00000000000000000000000001010010 .
10
b00000000000000000000000001010001 2
b00000000000000000000000001010001 5
b00000000000000000000000001010001 7
b00000000000000000000000001010001 9
#850000000
0!
0,
00
#855000000
1!
b00000000000000000000000001010010 $
b00000000000000000000000001010010 '
b00000000000000000000000001010010 (
1,
b00000000000000000000000001010010 -
b00000000000000000000000001010011 .
10
b00000000000000000000000001010010 2
b00000000000000000000000001010010 5
b00000000000000000000000001010010 7
b00000000000000000000000001010010 9
#860000000
0!
0,
00
#865000000
1!
b00000000000000000000000001010011 $
b00000000000000000000000001010011 '
b00000000000000000000000001010011 (
1,
b00000000000000000000000001010011 -
b00000000000000000000000001010100 .
10
b00000000000000000000000001010011 2
b00000000000000000000000001010011 5
b00000000000000000000000001010011 7
b00000000000000000000000001010011 9
#870000000
0!
0,
00
#875000000
1!
b00000000000000000000000001010100 $
b00000000000000000000000001010100 '
b00000000000000000000000001010100 (
1,
b00000000000000000000000001010100 -
b00000000000000000000000001010101 .
10
b00000000000000000000000001010100 2
b00000000000000000000000001010100 5
b00000000000000000000000001010100 7
b00000000000000000000000001010100 9
#880000000
0!
0,
00
#885000000
1!
b00000000000000000000000001010101 $
b00000000000000000000000001010101 '
b00000000000000000000000001010101 (
1,
b00000000000000000000000001010101 -
b00000000000000000000000001010110 .
10
b00000000000000000000000001010101 2
b00000000000000000000000001010101 5
b00000000000000000000000001010101 7
b00000000000000000000000001010101 9
#890000000
0!
0,
00
#895000000
1!
b00000000000000000000000001010110 $
b00000000000000000000000001010110 '
b00000000000000000000000001010110 (
1,
b00000000000000000000000001010110 -
b00000000000000000000000001010111 .
10
b00000000000000000000000001010110 2
b00000000000000000000000001010110 5
b00000000000000000000000001010110 7
b00000000000000000000000001010110 9
#900000000
0!
0,
00
